{
	"info": {
		"_postman_id": "1cfcd11d-4ea1-4e86-9ca2-59a6dab39461",
		"name": "EPC",
		"schema": "https://schema.getpostman.com/json/collection/v2.1.0/collection.json"
	},
	"item": [
		{
			"_postman_id": "d50ef6df-02e3-4cab-af41-632970c4f6c2",
			"name": "1 Branch",
			"item": [
				{
					"_postman_id": "3489b8d8-79f7-4ef8-a374-3845fc73a75d",
					"name": "1.2 新增 Branch (addBranch)",
					"request": {
						"method": "POST",
						"header": [
							{
								"key": "Content-Type",
								"value": "application/json"
							}
						],
						"body": {
							"mode": "raw",
							"raw": "{\n\t\"name\": \"Warehouse 1\"\n}"
						},
						"url": {
							"raw": "{{host}}/branches",
							"host": [
								"{{host}}"
							],
							"path": [
								"branches"
							]
						},
						"description": "要新增的資料在 Body 以 application/json 提供\n所需欄位如下：\n\n*[name] = Branch 名稱\n [memo] = 備註\n\n欄位名稱前方有標記 * 號表示必要欄位\n"
					},
					"response": []
				},
				{
					"_postman_id": "3031f97f-f636-4a78-bfe6-51bd015e983b",
					"name": "1.1 取得 Branch 清單 (getBranch)",
					"request": {
						"method": "GET",
						"header": [
							{
								"key": "Content-Type",
								"value": "application/json"
							}
						],
						"body": {
							"mode": "raw",
							"raw": "{\n\t\"name\": \"Warehouse 1\"\n}"
						},
						"url": {
							"raw": "{{host}}/branches",
							"host": [
								"{{host}}"
							],
							"path": [
								"branches"
							]
						}
					},
					"response": []
				}
			]
		},
		{
			"_postman_id": "af1961e9-2e17-4244-9bb5-eebd0d611003",
			"name": "2 Reader",
			"item": [
				{
					"_postman_id": "c32b885a-00f3-4389-9d5c-898cdad2b76d",
					"name": "2.1 取得指定 Branch 下所屬的 Reader 清單 (getReaders)",
					"request": {
						"method": "GET",
						"header": [],
						"body": {},
						"url": {
							"raw": "{{host}}/branches/9E18D7B4-32D9-40E6-9750-A906CC3FD8CA/readers",
							"host": [
								"{{host}}"
							],
							"path": [
								"branches",
								"9E18D7B4-32D9-40E6-9750-A906CC3FD8CA",
								"readers"
							]
						}
					},
					"response": []
				},
				{
					"_postman_id": "f4d21571-7c28-43ce-b327-a73fd2a5b54f",
					"name": "2.2 新增 Reader 於指定的 Branch (addReader)",
					"request": {
						"method": "POST",
						"header": [
							{
								"key": "Content-Type",
								"value": "application/json"
							}
						],
						"body": {
							"mode": "raw",
							"raw": "{\n\t\"mac_address\": \"00-01-02-03-04-05\",\n\t\"name\": \"test\"\n}"
						},
						"url": {
							"raw": "{{host}}/branches/9E18D7B4-32D9-40E6-9750-A906CC3FD8CA/readers",
							"host": [
								"{{host}}"
							],
							"path": [
								"branches",
								"9E18D7B4-32D9-40E6-9750-A906CC3FD8CA",
								"readers"
							]
						}
					},
					"response": []
				}
			]
		},
		{
			"_postman_id": "4629b134-ec31-4249-9111-f223c59fefe2",
			"name": "3 Epc",
			"item": [
				{
					"_postman_id": "8e534c4f-2366-496f-8208-0884431fbe58",
					"name": "3.1 取得指定 Branch 與 Reader 下的 Epc 清單",
					"request": {
						"method": "GET",
						"header": [],
						"body": {},
						"url": {
							"raw": "{{host}}/branches/9E18D7B4-32D9-40E6-9750-A906CC3FD8CA/readers/11",
							"host": [
								"{{host}}"
							],
							"path": [
								"branches",
								"9E18D7B4-32D9-40E6-9750-A906CC3FD8CA",
								"readers",
								"11"
							]
						}
					},
					"response": []
				},
				{
					"_postman_id": "36a57831-905d-4573-ab32-02410f47bb24",
					"name": "3.2 新增 Epc 於指定的 Branch 與 Reader (addEpc)",
					"request": {
						"method": "POST",
						"header": [
							{
								"key": "Content-Type",
								"value": "application/json"
							}
						],
						"body": {
							"mode": "raw",
							"raw": "{\n\t\"epc\": \"989A000000000D1509112923\"\n}"
						},
						"url": {
							"raw": "{{host}}/branches/9E18D7B4-32D9-40E6-9750-A906CC3FD8CA/readers/1",
							"host": [
								"{{host}}"
							],
							"path": [
								"branches",
								"9E18D7B4-32D9-40E6-9750-A906CC3FD8CA",
								"readers",
								"1"
							]
						}
					},
					"response": []
				},
				{
					"_postman_id": "a1f58207-dad4-45fc-99d4-d3f13b17b17a",
					"name": "3.3 新增 Epc (使用 Reader 的 MacAddress)",
					"request": {
						"method": "POST",
						"header": [
							{
								"key": "Content-Type",
								"value": "application/json"
							}
						],
						"body": {
							"mode": "raw",
							"raw": "{\n\t\"mac_address\": \"00:01:02:03:04:05\",\n\t\"epc\": \"989A000000000D1509112923\"\n}"
						},
						"url": {
							"raw": "{{host}}/epc",
							"host": [
								"{{host}}"
							],
							"path": [
								"epc"
							]
						}
					},
					"response": []
				}
			]
		}
	],
	"event": [
		{
			"listen": "prerequest",
			"script": {
				"id": "a9befa7c-7a94-449d-80eb-30b7b4d805f9",
				"type": "text/javascript",
				"exec": [
					""
				]
			}
		},
		{
			"listen": "test",
			"script": {
				"id": "817a7722-d633-4f91-a983-a8fadad78cc0",
				"type": "text/javascript",
				"exec": [
					""
				]
			}
		}
	],
	"variable": [
		{
			"id": "7e49ebfd-d32f-41b4-ab4a-c5f613bb63bd",
			"key": "host",
			"value": "https://epc-azure.azurewebsites.net",
			"type": "string"
		}
	]
}